module modernc.org/muslheaders

go 1.20

require (
	github.com/dustin/go-humanize v1.0.1 // indirect
	github.com/google/uuid v1.3.0 // indirect
	github.com/kballard/go-shellquote v0.0.0-20180428030007-95032a82bc51 // indirect
	github.com/mattn/go-isatty v0.0.16 // indirect
	github.com/remyoudompheng/bigfft v0.0.0-20230129092748-24d4a6f8daec // indirect
	golang.org/x/mod v0.10.0 // indirect
	golang.org/x/sys v0.8.0 // indirect
	golang.org/x/tools v0.9.3 // indirect
	lukechampine.com/uint128 v1.2.0 // indirect
	modernc.org/cc/v3 v3.41.0 // indirect
	modernc.org/cc/v4 v4.2.0 // indirect
	modernc.org/ccgo/v3 v3.16.14 // indirect
	modernc.org/ccgo/v4 v4.0.0-20230612103157-11cc8d68588d // indirect
	modernc.org/ccorpus2 v1.3.0 // indirect
	modernc.org/gc/v2 v2.1.2-0.20220923113132-f3b5abcf8083 // indirect
	modernc.org/libc v1.24.1 // indirect
	modernc.org/mathutil v1.5.0 // indirect
	modernc.org/memory v1.6.0 // indirect
	modernc.org/opt v0.1.3 // indirect
	modernc.org/strutil v1.1.3 // indirect
	modernc.org/token v1.1.0 // indirect
)
